\relax 
\providecommand\hyper@newdestlabel[2]{}
\providecommand\HyperFirstAtBeginDocument{\AtBeginDocument}
\HyperFirstAtBeginDocument{\ifx\hyper@anchor\@undefined
\global\let\oldcontentsline\contentsline
\gdef\contentsline#1#2#3#4{\oldcontentsline{#1}{#2}{#3}}
\global\let\oldnewlabel\newlabel
\gdef\newlabel#1#2{\newlabelxx{#1}#2}
\gdef\newlabelxx#1#2#3#4#5#6{\oldnewlabel{#1}{{#2}{#3}}}
\AtEndDocument{\ifx\hyper@anchor\@undefined
\let\contentsline\oldcontentsline
\let\newlabel\oldnewlabel
\fi}
\fi}
\global\let\hyper@last\relax 
\gdef\HyperFirstAtBeginDocument#1{#1}
\providecommand\HyField@AuxAddToFields[1]{}
\providecommand\HyField@AuxAddToCoFields[2]{}
\@writefile{nav}{\headcommand {\slideentry {0}{0}{1}{1/1}{}{0}}}
\@writefile{nav}{\headcommand {\beamer@framepages {1}{1}}}
\@writefile{nav}{\headcommand {\slideentry {0}{0}{2}{2/2}{}{0}}}
\@writefile{nav}{\headcommand {\beamer@framepages {2}{2}}}
\@writefile{toc}{\beamer@sectionintoc {1}{Introduction}{3}{0}{1}}
\@writefile{nav}{\headcommand {\beamer@sectionpages {1}{2}}}
\@writefile{nav}{\headcommand {\beamer@subsectionpages {1}{2}}}
\@writefile{nav}{\headcommand {\sectionentry {1}{Introduction}{3}{Introduction}{0}}}
\@writefile{nav}{\headcommand {\slideentry {1}{0}{1}{3/6}{}{0}}}
\@writefile{nav}{\headcommand {\beamer@framepages {3}{6}}}
\newlabel{genus}{{2}{7}{Introduction}{Doc-Start}{}}
\@writefile{snm}{\beamer@slide {genus}{7}}
\@writefile{nav}{\headcommand {\slideentry {1}{0}{2}{7/7}{}{0}}}
\@writefile{nav}{\headcommand {\beamer@framepages {7}{7}}}
\@writefile{nav}{\headcommand {\slideentry {1}{0}{3}{8/11}{}{0}}}
\@writefile{nav}{\headcommand {\beamer@framepages {8}{11}}}
\@writefile{toc}{\beamer@sectionintoc {2}{Réseau hexagonal}{12}{0}{2}}
\@writefile{nav}{\headcommand {\beamer@sectionpages {3}{11}}}
\@writefile{nav}{\headcommand {\beamer@subsectionpages {3}{11}}}
\@writefile{nav}{\headcommand {\sectionentry {2}{Réseau hexagonal}{12}{Réseau hexagonal}{0}}}
\@writefile{nav}{\headcommand {\slideentry {2}{0}{1}{12/14}{}{0}}}
\@writefile{nav}{\headcommand {\beamer@framepages {12}{14}}}
\@writefile{nav}{\headcommand {\slideentry {2}{0}{2}{15/16}{}{0}}}
\@writefile{nav}{\headcommand {\beamer@framepages {15}{16}}}
\@writefile{nav}{\headcommand {\slideentry {2}{0}{3}{17/17}{}{0}}}
\@writefile{nav}{\headcommand {\beamer@framepages {17}{17}}}
\@writefile{nav}{\headcommand {\slideentry {2}{0}{4}{18/20}{}{0}}}
\@writefile{nav}{\headcommand {\beamer@framepages {18}{20}}}
\@writefile{nav}{\headcommand {\slideentry {2}{0}{5}{21/23}{}{0}}}
\@writefile{nav}{\headcommand {\beamer@framepages {21}{23}}}
\@writefile{nav}{\headcommand {\slideentry {2}{0}{6}{24/24}{}{0}}}
\@writefile{nav}{\headcommand {\beamer@framepages {24}{24}}}
\@writefile{nav}{\headcommand {\slideentry {2}{0}{7}{25/25}{}{0}}}
\@writefile{nav}{\headcommand {\beamer@framepages {25}{25}}}
\@writefile{nav}{\headcommand {\slideentry {2}{0}{8}{26/26}{}{0}}}
\@writefile{nav}{\headcommand {\beamer@framepages {26}{26}}}
\@writefile{nav}{\headcommand {\slideentry {2}{0}{9}{27/27}{}{0}}}
\@writefile{nav}{\headcommand {\beamer@framepages {27}{27}}}
\@writefile{nav}{\headcommand {\slideentry {2}{0}{10}{28/28}{}{0}}}
\@writefile{nav}{\headcommand {\beamer@framepages {28}{28}}}
\@writefile{nav}{\headcommand {\slideentry {2}{0}{11}{29/29}{}{0}}}
\@writefile{nav}{\headcommand {\beamer@framepages {29}{29}}}
\@writefile{nav}{\headcommand {\slideentry {2}{0}{12}{30/30}{}{0}}}
\@writefile{nav}{\headcommand {\beamer@framepages {30}{30}}}
\@writefile{toc}{\beamer@sectionintoc {3}{Réseau perturbé}{31}{0}{3}}
\@writefile{nav}{\headcommand {\beamer@sectionpages {12}{30}}}
\@writefile{nav}{\headcommand {\beamer@subsectionpages {12}{30}}}
\@writefile{nav}{\headcommand {\sectionentry {3}{Réseau perturbé}{31}{Réseau perturbé}{0}}}
\@writefile{nav}{\headcommand {\slideentry {3}{0}{1}{31/34}{}{0}}}
\@writefile{nav}{\headcommand {\beamer@framepages {31}{34}}}
\@writefile{nav}{\headcommand {\slideentry {3}{0}{2}{35/35}{}{0}}}
\@writefile{nav}{\headcommand {\beamer@framepages {35}{35}}}
\@writefile{nav}{\headcommand {\slideentry {3}{0}{3}{36/36}{}{0}}}
\@writefile{nav}{\headcommand {\beamer@framepages {36}{36}}}
\@writefile{nav}{\headcommand {\slideentry {3}{0}{4}{37/37}{}{0}}}
\@writefile{nav}{\headcommand {\beamer@framepages {37}{37}}}
\@writefile{nav}{\headcommand {\slideentry {3}{0}{5}{38/38}{}{0}}}
\@writefile{nav}{\headcommand {\beamer@framepages {38}{38}}}
\@writefile{nav}{\headcommand {\slideentry {3}{0}{6}{39/39}{}{0}}}
\@writefile{nav}{\headcommand {\beamer@framepages {39}{39}}}
\@writefile{nav}{\headcommand {\slideentry {3}{0}{7}{40/40}{}{0}}}
\@writefile{nav}{\headcommand {\beamer@framepages {40}{40}}}
\@writefile{nav}{\headcommand {\slideentry {3}{0}{8}{41/41}{}{0}}}
\@writefile{nav}{\headcommand {\beamer@framepages {41}{41}}}
\@writefile{nav}{\headcommand {\slideentry {3}{0}{9}{42/42}{}{0}}}
\@writefile{nav}{\headcommand {\beamer@framepages {42}{42}}}
\@writefile{nav}{\headcommand {\slideentry {3}{0}{10}{43/44}{}{0}}}
\@writefile{nav}{\headcommand {\beamer@framepages {43}{44}}}
\@writefile{nav}{\headcommand {\slideentry {3}{0}{11}{45/45}{}{0}}}
\@writefile{nav}{\headcommand {\beamer@framepages {45}{45}}}
\@writefile{nav}{\headcommand {\slideentry {3}{0}{12}{46/46}{}{0}}}
\@writefile{nav}{\headcommand {\beamer@framepages {46}{46}}}
\@writefile{nav}{\headcommand {\slideentry {3}{0}{13}{47/47}{}{0}}}
\@writefile{nav}{\headcommand {\beamer@framepages {47}{47}}}
\@writefile{nav}{\headcommand {\slideentry {3}{0}{14}{48/49}{}{0}}}
\@writefile{nav}{\headcommand {\beamer@framepages {48}{49}}}
\@writefile{nav}{\headcommand {\slideentry {3}{0}{15}{50/50}{}{0}}}
\@writefile{nav}{\headcommand {\beamer@framepages {50}{50}}}
\@writefile{toc}{\beamer@sectionintoc {4}{Conclusion}{51}{0}{4}}
\@writefile{nav}{\headcommand {\beamer@sectionpages {31}{50}}}
\@writefile{nav}{\headcommand {\beamer@subsectionpages {31}{50}}}
\@writefile{nav}{\headcommand {\sectionentry {4}{Conclusion}{51}{Conclusion}{0}}}
\@writefile{nav}{\headcommand {\slideentry {4}{0}{1}{51/51}{}{0}}}
\@writefile{nav}{\headcommand {\beamer@framepages {51}{51}}}
\@writefile{nav}{\headcommand {\slideentry {4}{0}{2}{52/52}{}{0}}}
\@writefile{nav}{\headcommand {\beamer@framepages {52}{52}}}
\@writefile{nav}{\headcommand {\slideentry {4}{0}{3}{53/53}{}{0}}}
\@writefile{nav}{\headcommand {\beamer@framepages {53}{53}}}
\@writefile{nav}{\headcommand {\slideentry {4}{0}{4}{54/54}{}{0}}}
\@writefile{nav}{\headcommand {\beamer@framepages {54}{54}}}
\@writefile{nav}{\headcommand {\beamer@partpages {1}{54}}}
\@writefile{nav}{\headcommand {\beamer@subsectionpages {51}{54}}}
\@writefile{nav}{\headcommand {\beamer@sectionpages {51}{54}}}
\@writefile{nav}{\headcommand {\beamer@documentpages {54}}}
\@writefile{nav}{\headcommand {\gdef \inserttotalframenumber {36}}}
\gdef \@abspage@last{54}
