\beamer@sectionintoc {1}{Introduction}{3}{0}{1}
\beamer@sectionintoc {2}{Réseau hexagonal}{12}{0}{2}
\beamer@sectionintoc {3}{Réseau perturbé}{31}{0}{3}
\beamer@sectionintoc {4}{Conclusion}{51}{0}{4}
